^C:\USERS\SIGSBY\DOCUMENTS\VISUAL STUDIO 2010\PROJECTS\HUFFMAN\HUFFMANTEST\PROPERTIES\RESOURCES.RESX
C:\WINDOWS\ASSEMBLY\PUBPOL52.DAT
C:\WINDOWS\MICROSOFT.NET\ASSEMBLY\GAC_MSIL\MICROSOFT.BUILD.TASKS.V4.0\V4.0_4.0.0.0__B03F5F7F11D50A3A\MICROSOFT.BUILD.TASKS.V4.0.DLL
C:\USERS\SIGSBY\DOCUMENTS\VISUAL STUDIO 2010\PROJECTS\HUFFMAN\HUFFMANTEST\RESOURCES\LOREMIPSUM.TXT
