﻿<?xml version="1.0" encoding="UTF-8"?>
<TestRun id="4cfb0d8b-e88c-4fcc-b3bf-d6d0512da2e8" name="sigsby@LAPTOP 2012-12-16 15:47:38" runUser="laptop\sigsby" xmlns="http://microsoft.com/schemas/VisualStudio/TeamTest/2010">
  <TestSettings name="Local" id="f2b8fc2f-e201-4749-8513-3e7f3dbdfc83">
    <Description>These are default test settings for a local test run.</Description>
    <Deployment enabled="false" runDeploymentRoot="sigsby_LAPTOP 2012-12-16 15_47_38">
      <DeploymentItem filename="C:\Users\sigsby\Documents\Visual Studio 2010\Projects\Huffman\Huffman\bin\Debug\Huffman.exe" />
    </Deployment>
    <Execution>
      <TestTypeSpecific />
      <AgentRule name="Execution Agents">
      </AgentRule>
    </Execution>
  </TestSettings>
  <Times creation="2012-12-16T15:47:38.9397395-05:00" queuing="2012-12-16T15:48:07.9244174-05:00" start="2012-12-16T15:48:13.6732151-05:00" finish="2012-12-16T15:50:41.0188015-05:00" />
  <ResultSummary outcome="Error">
    <Counters total="1" executed="1" error="0" failed="0" timeout="0" aborted="1" inconclusive="0" passedButRunAborted="0" notRunnable="0" notExecuted="0" disconnected="0" warning="0" passed="0" completed="0" inProgress="0" pending="0" />
    <RunInfos>
      <RunInfo computerName="LAPTOP" outcome="Error" timestamp="2012-12-16T15:50:41.0121495-05:00">
        <Text>Test host process exited unexpectedly.</Text>
      </RunInfo>
    </RunInfos>
  </ResultSummary>
  <TestDefinitions>
    <UnitTest name="decodeTest" storage="c:\users\sigsby\documents\visual studio 2010\projects\huffman\huffmantest\bin\debug\huffmantest.dll" id="f6505503-ce1c-c5fc-2c1e-267e039f4698">
      <Execution id="99427eac-c00a-4898-905c-5724e596cb23" />
      <TestMethod codeBase="C:/Users/sigsby/Documents/Visual Studio 2010/Projects/Huffman/HuffmanTest/bin/Debug/HuffmanTest.DLL" adapterTypeName="Microsoft.VisualStudio.TestTools.TestTypes.Unit.UnitTestAdapter, Microsoft.VisualStudio.QualityTools.Tips.UnitTest.Adapter, Version=10.0.0.0, Culture=neutral, PublicKeyToken=b03f5f7f11d50a3a" className="HuffmanTest.DecoderTest, HuffmanTest, Version=1.0.0.0, Culture=neutral, PublicKeyToken=null" name="decodeTest" />
    </UnitTest>
  </TestDefinitions>
  <TestLists>
    <TestList name="Results Not in a List" id="8c84fa94-04c1-424b-9868-57a2d4851a1d" />
    <TestList name="All Loaded Results" id="19431567-8539-422a-85d7-44ee4e166bda" />
  </TestLists>
  <TestEntries>
    <TestEntry testId="f6505503-ce1c-c5fc-2c1e-267e039f4698" executionId="99427eac-c00a-4898-905c-5724e596cb23" testListId="8c84fa94-04c1-424b-9868-57a2d4851a1d" />
  </TestEntries>
  <Results>
    <UnitTestResult executionId="99427eac-c00a-4898-905c-5724e596cb23" testId="f6505503-ce1c-c5fc-2c1e-267e039f4698" testName="decodeTest" computerName="LAPTOP" duration="00:02:22.1775644" startTime="2012-12-16T15:48:18.8412371-05:00" endTime="2012-12-16T15:50:41.0188015-05:00" testType="13cdc9d9-ddb5-4fa4-a97d-d965ccfc6d4b" outcome="Aborted" testListId="8c84fa94-04c1-424b-9868-57a2d4851a1d" relativeResultsDirectory="99427eac-c00a-4898-905c-5724e596cb23">
    </UnitTestResult>
  </Results>
</TestRun>