﻿<?xml version="1.0" encoding="UTF-8"?>
<TestRun id="53072ad8-2ae2-4fa0-8a1e-4005c29764bc" name="sigsby@LAPTOP 2012-12-17 17:02:17" runUser="laptop\sigsby" xmlns="http://microsoft.com/schemas/VisualStudio/TeamTest/2010">
  <TestSettings name="Local" id="f2b8fc2f-e201-4749-8513-3e7f3dbdfc83">
    <Description>These are default test settings for a local test run.</Description>
    <Deployment enabled="false" runDeploymentRoot="sigsby_LAPTOP 2012-12-17 17_02_17">
      <DeploymentItem filename="C:\Users\sigsby\Documents\Visual Studio 2010\Projects\Huffman\Huffman\bin\Debug\Huffman.exe" />
    </Deployment>
    <Execution>
      <TestTypeSpecific />
      <AgentRule name="Execution Agents">
      </AgentRule>
    </Execution>
  </TestSettings>
  <Times creation="2012-12-17T17:02:17.6587355-05:00" queuing="2012-12-17T17:02:25.0649855-05:00" start="2012-12-17T17:02:27.1118605-05:00" finish="2012-12-17T17:02:41.0806105-05:00" />
  <ResultSummary outcome="Completed">
    <Counters total="3" executed="3" passed="3" error="0" failed="0" timeout="0" aborted="0" inconclusive="0" passedButRunAborted="0" notRunnable="0" notExecuted="0" disconnected="0" warning="0" completed="0" inProgress="0" pending="0" />
  </ResultSummary>
  <TestDefinitions>
    <UnitTest name="decodeTest" storage="c:\users\sigsby\documents\visual studio 2010\projects\huffman\huffmantest\bin\debug\huffmantest.dll" id="f6505503-ce1c-c5fc-2c1e-267e039f4698">
      <Execution id="73c6537b-6204-4528-b82c-d2742bd4fcb8" />
      <TestMethod codeBase="C:/Users/sigsby/Documents/Visual Studio 2010/Projects/Huffman/HuffmanTest/bin/Debug/HuffmanTest.DLL" adapterTypeName="Microsoft.VisualStudio.TestTools.TestTypes.Unit.UnitTestAdapter, Microsoft.VisualStudio.QualityTools.Tips.UnitTest.Adapter, Version=10.0.0.0, Culture=neutral, PublicKeyToken=b03f5f7f11d50a3a" className="HuffmanTest.DecoderTest, HuffmanTest, Version=1.0.0.0, Culture=neutral, PublicKeyToken=null" name="decodeTest" />
    </UnitTest>
    <UnitTest name="MainTest" storage="c:\users\sigsby\documents\visual studio 2010\projects\huffman\huffmantest\bin\debug\huffmantest.dll" id="c5337b48-7987-705e-9ba8-af76a35994c6">
      <Execution id="cda38324-f636-4c0e-a1ff-f7a0de5bb6ce" />
      <TestMethod codeBase="C:/Users/sigsby/Documents/Visual Studio 2010/Projects/Huffman/HuffmanTest/bin/Debug/HuffmanTest.DLL" adapterTypeName="Microsoft.VisualStudio.TestTools.TestTypes.Unit.UnitTestAdapter, Microsoft.VisualStudio.QualityTools.Tips.UnitTest.Adapter, Version=10.0.0.0, Culture=neutral, PublicKeyToken=b03f5f7f11d50a3a" className="HuffmanTest.ProgramTest, HuffmanTest, Version=1.0.0.0, Culture=neutral, PublicKeyToken=null" name="MainTest" />
    </UnitTest>
    <UnitTest name="encodeTest" storage="c:\users\sigsby\documents\visual studio 2010\projects\huffman\huffmantest\bin\debug\huffmantest.dll" id="e281fea1-0250-2349-9e01-09ba70e07e72">
      <Execution id="72eb8e86-5fe9-423f-ad75-18e469b302ee" />
      <TestMethod codeBase="C:/Users/sigsby/Documents/Visual Studio 2010/Projects/Huffman/HuffmanTest/bin/Debug/HuffmanTest.DLL" adapterTypeName="Microsoft.VisualStudio.TestTools.TestTypes.Unit.UnitTestAdapter, Microsoft.VisualStudio.QualityTools.Tips.UnitTest.Adapter, Version=10.0.0.0, Culture=neutral, PublicKeyToken=b03f5f7f11d50a3a" className="HuffmanTest.EncoderTest, HuffmanTest, Version=1.0.0.0, Culture=neutral, PublicKeyToken=null" name="encodeTest" />
    </UnitTest>
  </TestDefinitions>
  <TestLists>
    <TestList name="Results Not in a List" id="8c84fa94-04c1-424b-9868-57a2d4851a1d" />
    <TestList name="All Loaded Results" id="19431567-8539-422a-85d7-44ee4e166bda" />
  </TestLists>
  <TestEntries>
    <TestEntry testId="c5337b48-7987-705e-9ba8-af76a35994c6" executionId="cda38324-f636-4c0e-a1ff-f7a0de5bb6ce" testListId="8c84fa94-04c1-424b-9868-57a2d4851a1d" />
    <TestEntry testId="e281fea1-0250-2349-9e01-09ba70e07e72" executionId="72eb8e86-5fe9-423f-ad75-18e469b302ee" testListId="8c84fa94-04c1-424b-9868-57a2d4851a1d" />
    <TestEntry testId="f6505503-ce1c-c5fc-2c1e-267e039f4698" executionId="73c6537b-6204-4528-b82c-d2742bd4fcb8" testListId="8c84fa94-04c1-424b-9868-57a2d4851a1d" />
  </TestEntries>
  <Results>
    <UnitTestResult executionId="cda38324-f636-4c0e-a1ff-f7a0de5bb6ce" testId="c5337b48-7987-705e-9ba8-af76a35994c6" testName="MainTest" computerName="LAPTOP" duration="00:00:01.3241881" startTime="2012-12-17T17:02:27.7524855-05:00" endTime="2012-12-17T17:02:37.6274855-05:00" testType="13cdc9d9-ddb5-4fa4-a97d-d965ccfc6d4b" outcome="Passed" testListId="8c84fa94-04c1-424b-9868-57a2d4851a1d" relativeResultsDirectory="cda38324-f636-4c0e-a1ff-f7a0de5bb6ce">
    </UnitTestResult>
    <UnitTestResult executionId="72eb8e86-5fe9-423f-ad75-18e469b302ee" testId="e281fea1-0250-2349-9e01-09ba70e07e72" testName="encodeTest" computerName="LAPTOP" duration="00:00:00.1685907" startTime="2012-12-17T17:02:37.7368605-05:00" endTime="2012-12-17T17:02:38.1743605-05:00" testType="13cdc9d9-ddb5-4fa4-a97d-d965ccfc6d4b" outcome="Passed" testListId="8c84fa94-04c1-424b-9868-57a2d4851a1d" relativeResultsDirectory="72eb8e86-5fe9-423f-ad75-18e469b302ee">
    </UnitTestResult>
    <UnitTestResult executionId="73c6537b-6204-4528-b82c-d2742bd4fcb8" testId="f6505503-ce1c-c5fc-2c1e-267e039f4698" testName="decodeTest" computerName="LAPTOP" duration="00:00:00.1051485" startTime="2012-12-17T17:02:38.3306105-05:00" endTime="2012-12-17T17:02:38.7368605-05:00" testType="13cdc9d9-ddb5-4fa4-a97d-d965ccfc6d4b" outcome="Passed" testListId="8c84fa94-04c1-424b-9868-57a2d4851a1d" relativeResultsDirectory="73c6537b-6204-4528-b82c-d2742bd4fcb8">
    </UnitTestResult>
  </Results>
</TestRun>