﻿<?xml version="1.0" encoding="UTF-8"?>
<TestRun id="db61c6f7-8771-4bb8-9a85-44e184172b12" name="sigsby@LAPTOP 2012-12-16 10:29:36" runUser="laptop\sigsby" xmlns="http://microsoft.com/schemas/VisualStudio/TeamTest/2010">
  <TestSettings name="Local" id="f2b8fc2f-e201-4749-8513-3e7f3dbdfc83">
    <Description>These are default test settings for a local test run.</Description>
    <Deployment enabled="false" runDeploymentRoot="sigsby_LAPTOP 2012-12-16 10_29_36">
      <DeploymentItem filename="C:\Users\sigsby\Documents\Visual Studio 2010\Projects\Huffman\Huffman\bin\Debug\Huffman.exe" />
    </Deployment>
    <Execution>
      <TestTypeSpecific />
      <AgentRule name="Execution Agents">
      </AgentRule>
    </Execution>
  </TestSettings>
  <Times creation="2012-12-16T10:29:36.8444710-05:00" queuing="2012-12-16T10:29:59.3998176-05:00" start="2012-12-16T10:30:07.4364094-05:00" finish="2012-12-16T10:32:42.7917247-05:00" />
  <ResultSummary outcome="Error">
    <Counters total="1" executed="1" error="0" failed="0" timeout="0" aborted="1" inconclusive="0" passedButRunAborted="0" notRunnable="0" notExecuted="0" disconnected="0" warning="0" passed="0" completed="0" inProgress="0" pending="0" />
    <RunInfos>
      <RunInfo computerName="LAPTOP" outcome="Error" timestamp="2012-12-16T10:32:42.7034353-05:00">
        <Text>Test host process exited unexpectedly.</Text>
      </RunInfo>
    </RunInfos>
  </ResultSummary>
  <TestDefinitions>
    <UnitTest name="encodeTest" storage="c:\users\sigsby\documents\visual studio 2010\projects\huffman\huffmantest\bin\debug\huffmantest.dll" id="e281fea1-0250-2349-9e01-09ba70e07e72">
      <Execution id="21f4a2cf-a835-4000-9cc0-7103d884c5d4" />
      <TestMethod codeBase="C:/Users/sigsby/Documents/Visual Studio 2010/Projects/Huffman/HuffmanTest/bin/Debug/HuffmanTest.DLL" adapterTypeName="Microsoft.VisualStudio.TestTools.TestTypes.Unit.UnitTestAdapter, Microsoft.VisualStudio.QualityTools.Tips.UnitTest.Adapter, Version=10.0.0.0, Culture=neutral, PublicKeyToken=b03f5f7f11d50a3a" className="HuffmanTest.EncoderTest, HuffmanTest, Version=1.0.0.0, Culture=neutral, PublicKeyToken=null" name="encodeTest" />
    </UnitTest>
  </TestDefinitions>
  <TestLists>
    <TestList name="Results Not in a List" id="8c84fa94-04c1-424b-9868-57a2d4851a1d" />
    <TestList name="All Loaded Results" id="19431567-8539-422a-85d7-44ee4e166bda" />
  </TestLists>
  <TestEntries>
    <TestEntry testId="e281fea1-0250-2349-9e01-09ba70e07e72" executionId="21f4a2cf-a835-4000-9cc0-7103d884c5d4" testListId="8c84fa94-04c1-424b-9868-57a2d4851a1d" />
  </TestEntries>
  <Results>
    <UnitTestResult executionId="21f4a2cf-a835-4000-9cc0-7103d884c5d4" testId="e281fea1-0250-2349-9e01-09ba70e07e72" testName="encodeTest" computerName="LAPTOP" duration="00:02:28.2196574" startTime="2012-12-16T10:30:14.5708742-05:00" endTime="2012-12-16T10:32:42.7905316-05:00" testType="13cdc9d9-ddb5-4fa4-a97d-d965ccfc6d4b" outcome="Aborted" testListId="8c84fa94-04c1-424b-9868-57a2d4851a1d" relativeResultsDirectory="21f4a2cf-a835-4000-9cc0-7103d884c5d4">
    </UnitTestResult>
  </Results>
</TestRun>